{
    "manifestVersion": 1,
    "deployments": {
        "aspNetCoreWeb": [
        {
            "name": "test-dotnet-core",
            "parameters": {
                "appBundle": "tutoSite.zip",
                "iisPath": "/",
                "iisWebSite": "Default Web Site"
            }
        }
        ]
    }
}